2007-07-09 08:13 +0000 [r685561]  binner

	* branches/KDE/3.5/kdeaccessibility/kttsd/players/alsaplayer/alsaplayer.cpp:
	  fix mathematical meaning :-)

2007-10-08 11:05 +0000 [r722958]  coolo

	* branches/KDE/3.5/kdeaccessibility/kdeaccessibility.lsm: updating
	  lsm

