------------------------------------------------------------------------
r946319 | scripty | 2009-03-29 08:00:12 +0000 (Sun, 29 Mar 2009) | 1 line

SVN_SILENT made messages (.desktop file)
------------------------------------------------------------------------
r946936 | reed | 2009-03-30 14:57:25 +0000 (Mon, 30 Mar 2009) | 1 line

missing opengl include
------------------------------------------------------------------------
r947235 | scripty | 2009-03-31 07:01:29 +0000 (Tue, 31 Mar 2009) | 1 line

SVN_SILENT made messages (.desktop file)
------------------------------------------------------------------------
r954131 | scripty | 2009-04-15 08:17:20 +0000 (Wed, 15 Apr 2009) | 1 line

SVN_SILENT made messages (.desktop file)
------------------------------------------------------------------------
r955864 | dimsuz | 2009-04-18 17:27:09 +0000 (Sat, 18 Apr 2009) | 5 lines

Merge bugfix from trunk to 4.2 branch

BUG: 189969


------------------------------------------------------------------------
r958292 | aacid | 2009-04-23 18:30:27 +0000 (Thu, 23 Apr 2009) | 4 lines

Backport r958291 | aacid | 2009-04-23 20:29:33 +0200 (Thu, 23 Apr 2009) | 3 lines

Do not allow starting a game with 0 players

------------------------------------------------------------------------
r960270 | scripty | 2009-04-28 07:37:59 +0000 (Tue, 28 Apr 2009) | 1 line

SVN_SILENT made messages (.desktop file)
------------------------------------------------------------------------
r961500 | scripty | 2009-04-30 08:02:59 +0000 (Thu, 30 Apr 2009) | 1 line

SVN_SILENT made messages (.desktop file)
------------------------------------------------------------------------
