------------------------------------------------------------------------
r966494 | scripty | 2009-05-11 09:07:30 +0000 (Mon, 11 May 2009) | 1 line

SVN_SILENT made messages (.desktop file)
------------------------------------------------------------------------
r967310 | scripty | 2009-05-13 08:05:37 +0000 (Wed, 13 May 2009) | 1 line

SVN_SILENT made messages (.desktop file)
------------------------------------------------------------------------
