------------------------------------------------------------------------
r1162454 | scripty | 2010-08-12 03:07:18 +0100 (dj, 12 ago 2010) | 1 line

SVN_SILENT made messages (.desktop file)
------------------------------------------------------------------------
