------------------------------------------------------------------------
r1183598 | scripty | 2010-10-08 15:54:48 +1300 (Fri, 08 Oct 2010) | 1 line

SVN_SILENT made messages (.desktop file)
------------------------------------------------------------------------
